id,label
218775148495515649,1
258965201766998017,0
262926411352903682,0
254948834910818305,1
171874368908050432,0
256010056942903296,1
261776619146985472,0
264143999374356481,0
223052929131757571,1
264088575476391936,0
264033815066984448,0
258639996037259264,0
250981027969896448,0
195554987919679488,0
260536025800142848,0
263182075434254336,0
262434763493748736,0
256514267149385729,0
263733718085140481,1
241403423130525699,1
263690432473624578,0
260072342905049088,1
264208681338560513,0
177924741301149696,1
263307152398090240,1
263509025059127296,1
242710540542164992,0
262850595428380672,0
246289024552148992,1
247476146642485249,0
261351584410247168,0
243074408409882624,0
259492614355693568,2
263485976356220928,0
264048609081839616,0
245953055655329793,0
254429009956442112,2
258973983444201473,0
199458824422309889,0
263606229534912512,0
248596588128256000,0
260938512579309568,0
242693222088994816,1
264061951431294977,0
206234768495493121,1
263106118883086339,1
233676168828698624,1
264167170261516288,0
260806244938440704,2
257409607423647744,0
259278100196638720,0
260806302903721984,0
248965691384942593,1
263737807867088896,0
261166794998427649,0
263432435772051456,1
259373916156481536,0
260941359580598273,0
249900139236446208,1
263828483086626816,1
263266713754279936,0
254427164844367872,0
244853909334663170,0
257721212527071233,0
255780352755376128,0
263797952651350019,1
241208302044860416,0
264001674694246400,1
199739480750555136,0
254686292045086721,1
242897531275706368,0
253157284925038592,1
257549213087432704,2
263913414525583361,0
263527684984958977,0
263138815051444224,1
261693345519263744,0
242957726781698048,1
262901069527543808,0
262289694736392192,1
249101960328921088,0
193846470473039872,1
264136021917188096,0
263851061746479104,1
230361473849884672,1
174003654238547968,1
258964839559475200,0
259122713858301952,0
189276966338297858,0
250887102923939840,0
244107469427720194,0
263995618421268480,1
263335900258394112,1
264042649537880064,1
245564705492582400,1
262476631111778304,0
263306537064357890,0
249211780314836993,1
217408254978961410,0
261265759114768385,0
263019968805892096,1
207909520071073792,1
193607051891589120,1
264017969498169346,0
263310080823418881,1
212621727006601218,0
246102730400227328,0
193521822405365761,0
169609494815457283,0
247712189635497985,1
263984767731630080,0
263876102865440768,0
258635165528641536,1
264094468754518018,1
262857486720172032,0
218535418738655233,1
252057183657803776,0
262204155827990530,1
264196470830399488,0
259129265570869248,1
246398692679114752,1
263310009566392320,0
222970687118258176,1
240831218864771072,0
264213386592669696,0
264169764979609600,2
240326771948548096,0
264236295172272128,0
261969426889457664,1
263307551360303105,1
248723502784475136,0
225234645099347968,1
264217924728930304,1
263503249758375936,1
207447080585789440,1
252576881981943808,0
261639278772232192,0
261994984952188928,0
264086250925998081,0
252625719430098944,0
245621999517437953,0
257589573465550848,0
218087200003338241,1
258814894361702400,0
174370947405586434,0
264036919011319808,0
259095865652817920,1
264174123234783232,0
260976746462072832,0
260798039936077825,0
165009461449207809,1
263509017639415808,0
259265454743363584,0
255525306159468544,1
259838363887099905,1
263682806264258560,0
260965829510840320,1
249064529374371840,1
261454444019974145,0
256726415284768768,1
262070783411638272,0
258526698956529664,0
225033272181276672,1
258591480162168832,1
259742833810997248,0
239306698903396352,1
235112576101515265,1
262836186203172864,1
247736704281223168,1
264132415843356672,0
262922727915147264,1
263556796004855808,1
259498159619850240,0
252075560682012672,0
254600364496650241,0
259415061678927873,0
246365394531647488,0
264175386143907840,1
197328259137015808,1
173976882000314368,1
256492927407239168,0
263897121302929408,0
261109626999799808,0
197495345100505090,1
263072011083984897,0
255869591077654528,0
261328176846888960,2
264180389126483968,1
263731830044360705,1
263994754017157120,1
264234731720290304,1
225194268011134976,1
259588283443580929,0
263949864658952192,0
238778736693108736,0
263615384811352065,1
193862303240818688,0
263512200185012225,1
242487730704113664,0
263053946766123010,1
218585706484871169,0
262620485949480961,0
264248465440272384,2
249317265630175232,0
252943098915717121,2
261722502634557440,0
262343145843466240,0
264157509349154816,0
242541943920402432,0
263720309658624000,0
257816075679453184,2
178110692853952512,1
263684648192835584,0
261282886097989632,2
194716668117786624,1
248828540554985472,0
261550808527675394,1
259438015712202752,0
254041683078045697,1
225534415026130944,0
262875597162823680,0
249303363764764672,1
258624026136698880,0
263692385974902785,0
251692344984875008,0
264052136671842306,1
264242277285777409,1
182716855247568897,0
260599504535961601,1
258737462556372992,2
197068208644161539,2
263339757508124672,0
264016539211165696,0
263310194283515905,0
262726878052380672,2
261399067026923520,1
264062824282746880,0
255484381811077120,0
262298455270113280,0
264151223475769345,1
261862110068350976,0
262635748837167104,0
255925060609658881,1
263133446430404608,0
264101441420029952,1
178425868341870592,0
211023490168524800,1
231804204807761922,0
255615261707755522,0
258694190932836352,2
256270784006328320,0
258446299253329922,0
260815921596223488,2
231238067116183555,0
264085618638868480,0
225306407497502720,1
264236079639584770,0
264166359716483073,0
264150820281532417,0
264133052240891905,1
264136260929601536,0
197050616860786689,1
257987014492839936,0
246282909814751232,0
243057337789710336,0
246221773371236352,0
264157472518979584,1
241233461560635392,0
239035929040412673,1
262011184348270592,1
261571276685049856,1
263932238683586560,0
259864882743214080,0
212895768242159617,1
264180884763209729,2
256527282934534144,0
256215997646790656,0
243820005131710465,0
186739473525116928,1
192445297014747136,0
260805278885367809,2
233671971303464960,1
213748319053283329,0
264185288534925312,0
207273052944334848,1
262427324065120256,0
262556973399175169,1
234011176672038912,1
263476459312648192,1
264264907137097728,0
264110569869688832,0
171385775416553472,2
263189281982541824,0
250584452735062017,0
264142187648929794,0
259085652954578944,0
254418672825810944,0
256063741723017216,1
264089688468500480,1
264178640709906433,1
198453438567288833,1
263833340308774913,0
263943235456626688,1
264112069329166337,1
264166808133713920,0
255803057064001536,0
262068428838428672,1
254640117963161601,1
263245558624444416,1
264224039801856000,0
249506526325264386,0
169518982519459841,0
263765711967645697,0
260783447881162752,1
262224750808539136,1
263618315468042240,0
248718821664362496,2
253830890864648192,0
228331397843132416,0
264159573793968128,0
263650939737612290,0
259560361534033920,1
262905736680591360,0
174000009413529601,1
253383191254159360,0
263820098601619456,1
252982075932688384,1
260149068544741376,0
244522554558148608,0
216836489122820096,1
260899290329800704,0
262907475131514880,1
264150125063057409,2
263963855422623744,0
215160992684965889,1
258452237490212864,1
264234970204229632,1
261620693685399552,1
259463434989604864,2
254181273352929280,1
264059489777496066,1
259877828277968896,0
261858188410880000,0
262133539598909440,0
233363122772140032,2
262430211260416001,0
260555493012021248,0
256135792039194626,0
264100032041607168,1
262469502254604289,0
263740586912276480,0
262647787236245505,2
257750740645330944,0
263813178914385920,1
260824355787911169,2
263713149658730497,0
229246522863271936,0
262923248294064129,2
262585900129726464,0
261781500603805696,0
194378056880754688,1
238787902287540224,1
256107327759990785,0
255550515700715520,1
264151411514826752,1
250598574902099968,0
260240492422377472,0
259134818070183936,1
261009627418877952,1
263556483185266688,0
261902226384105472,0
243266733866115072,0
259663533447454720,0
241873590914539520,1
256567471576870914,2
232788240594247681,1
254817714898604032,0
206536587272663040,1
263034890709241856,0
237699756598652928,0
264114715138088961,0
260872391662637057,1
264162573144956928,0
168794208235298820,0
263909876869259264,0
253501935636860928,0
250655526734671872,1
159200989268807680,1
263306980301606913,0
194185048411484161,0
264130675190398976,0
209966615901642754,1
264100036168781825,0
261760403695087616,0
210638324430413825,1
240478344561446912,1
263819389567135744,0
264186992110219264,0
264067792981078016,1
196296204970237952,1
254576335593304064,0
236236822672465920,1
258505563728658432,0
264175297866371073,0
245676320254726145,0
232848893753307136,1
255228183727722496,1
259508640694816768,0
259226024141811713,1
262708146387169280,0
213186343705124866,0
258435673340653568,1
261026742016303104,0
254430502981890049,0
260803911835844608,0
260992337860251648,1
261812763255529472,1
212937076499431424,0
255223207047614464,1
263701141282516992,0
262953594997846016,1
264054028089036800,0
178301152318857217,0
224454840242290689,1
257209972369281024,2
264185661748310016,0
263448639433744385,0
177640329724444673,0
244946923176472576,0
245736894145646592,1
264142179809771520,0
206372808585003008,1
262426421803241472,0
234566574315540481,1
262365545968594945,1
230429455510822913,1
261463706238595072,1
226397097648349184,0
260106710147031040,0
238496977212551168,1
264148362901725184,0
264114968159457280,0
240335942337064961,1
197070854759251968,1
254172223345135616,0
264123212386930689,0
262014220491694081,0
178311431085764608,0
255223204598149120,0
248659757999734784,2
230288811941322752,1
263477110293807105,1
253287364133261312,1
264217170664357889,1
239487738146078720,0
264243935671615488,0
247920865075945472,1
253351706258182144,2
263313909979688960,1
260784153648324610,1
235537375344869377,0
263448962512605184,0
262483507736100864,1
260793549400985600,0
253452182534373376,0
250894157177044992,1
251846652846014465,0
246340886546481152,1
263147387722285057,0
263581164936237056,0
217811697635819520,1
263812359930404864,0
236901908898541568,0
264201029845921792,0
173992535138635777,1
254532014928187394,1
217175114951823361,2
263777540714401792,0
263021399331983361,1
264075590724886528,1
260270112941158400,1
256492742815928320,0
258641992563712000,0
233453521050161152,1
259938447979069441,1
264235477903753216,1
263197116388745216,1
223125679946989569,1
264136370853908483,0
258211929154281473,1
258983149076377600,0
262595005363912704,0
258909777395085312,0
258612572775919618,0
264177605576646657,1
263358943663902722,1
263680865207459840,0
262717098210500608,1
258268530762465280,0
261568022798548992,1
245540130482434048,0
254243823197224960,0
203777374666498048,1
264166754866053122,0
238706843885641730,1
263156695436517376,0
263279440392511488,0
232517703057948673,1
260942395179417600,0
261177142921011200,0
192303306515812353,0
263641707701207040,0
263961058346164225,1
262717245149544448,1
252165210704596992,2
256627880891654144,0
261755988653252608,0
256004203300929536,1
254715456584314880,2
249568727266381824,0
254093643395252224,1
236271689225367552,1
201843342940717057,1
258001079919333377,0
234592708520468480,0
250079166278533120,1
251059817827938304,1
223353754181836803,1
258286214719881216,0
264205287374852096,0
264017949810106368,2
263358562531676161,1
238043783038631937,1
262585958409596929,1
178000146481692672,1
263688734501916672,0
264193350595391489,0
254686087144951808,1
256907631199911937,1
264196194245410816,1
202247029500559361,0
261880984193089536,1
263627092166582273,0
263958116335493120,0
255617170699059200,0
210017241524211713,0
264005303325061121,0
262072527856218113,0
209969665567494146,1
254182567211855872,0
264205464466763777,1
253250997856636928,0
206121346139303936,1
254728242337050624,0
177382644273778692,1
262748325105786880,1
229315683991818240,0
258938637469769728,0
250860352559013888,0
257880381406199808,1
261738089288962048,1
263330792321720321,2
247511500158291968,1
251921132263985152,2
261525006318727168,1
261943605961318400,1
263352912678367234,0
258844627757580288,1
227824611872616448,0
250783425835970560,1
225427890160943104,0
250017113773858818,1
240342035834490880,0
264066090894778368,1
245573853252837376,1
218020582523015169,1
195576847826821120,0
252264767719350273,0
249717191006642176,0
201203539169652737,1
262218488440049665,0
262007346996334592,0
262459356371615744,0
260525423191019521,1
243222482520248320,0
258519636549709826,1
263040302544199681,0
262159327979266048,1
263351072129687553,1
262134202017910785,0
209601385447161857,0
169528903256379393,0
263985896720830464,0
262950188770004992,0
263721474236481536,1
234275265369497600,1
259128790985355264,0
255347089243004929,1
207626533358145537,0
259746311253938176,0
262082641879244800,1
238211552547848192,1
264170973073375232,1
240918612599246848,0
262045188166402048,0
236484355432783873,1
260176398344413186,1
264090404968886273,0
261455523843543040,0
250930638704758784,1
263381640343064577,1
263679057076580354,0
250464483443605504,0
261778309313069056,1
256847795963691008,0
178042226033696768,0
260825612774699008,2
231458875939880960,1
264115311039623169,0
262016201570529281,1
262131102137860096,0
263721545694859264,1
181155564015976449,0
248506867414884352,0
264095472367587328,0
259856013128249344,1
226365523187867648,0
248355728832741376,1
262649015630442497,0
263811257877028864,0
260030605012639745,2
253228331670061058,2
259926663213756416,1
263647662757269506,1
258181651299958784,0
253296308692062208,1
261173008381648896,0
261816186130546688,1
233652869432242177,0
251769670485544961,2
250226624979668992,0
260947743139315712,0
259382747615866882,1
178684565496401920,0
252100451057688577,0
205468598699962369,0
253900749921193984,0
255668664970407938,0
249356683011293184,0
263930523628490752,1
248965153465446400,2
253560761337667584,0
263772250409426944,1
262165556503908352,0
262953179514286081,0
263445282879062016,0
261150689655418880,1
264060566350487552,1
259996717569687552,0
264205815790063616,0
264252575879151616,0
258266917305982976,0
233812313013092352,1
262765768691838977,1
227032521731371008,1
254581658978754560,0
223272122200498176,0
263320847413030914,1
264125713353945088,0
248971180537675776,1
261017558377959425,0
263810178774876160,0
258177758356709376,1
263823865854181377,0
263849660425314304,0
218597647383138306,0
248210459830931456,1
264063063911723009,0
264228238216265729,1
257521488155000832,1
233250423904022528,0
243369437477101568,0
233858297017540608,0
263556575996821504,1
255263387846586369,0
213805382961856512,1
250355755377651712,1
260610098295107584,1
252140332374978560,2
259896458105475072,1
234049723751886848,1
264071568907464705,1
261464553542529024,0
260829996883525632,0
251547185051742208,1
259293329425051649,0
263850818715910144,1
216017440302305280,1
264180272189292544,0
234385238065827841,1
261078676584665088,1
249175435269795841,0
238409448601821184,0
262179989053648897,0
264078703443726336,1
250258794284711936,1
259630710162329601,1
258448018867630080,1
263078433549062146,1
262948330756251649,1
263355249346093058,1
264068322390319105,1
263384446802210816,0
258453457105731584,1
233177931273355265,0
217114783504273408,1
250344273575309312,1
258520497308958720,1
261140219783430145,0
263440757829038080,1
259840046180470784,2
235035773957722112,0
243272464107462656,0
263325942489939968,0
255028058526994432,0
235011538841382913,0
259703280186298369,0
208948133982502912,0
259341426490494976,1
264041063562485760,0
264128448291811328,1
261878469619757056,1
258385103582027777,2
253833756027269121,0
263005359663378432,1
261465475056275456,1
260539696071966720,1
233138349462937600,0
227911205136773120,1
264134780235444224,0
263046141178961920,1
252144895064694784,1
263075094421716992,1
262528700401201152,0
263510382948270081,0
231298409355702272,1
263286701491884032,0
234455790726033408,1
261341037467938817,0
261763305260068864,0
262737156013965312,0
236799630615126016,0
259394650945761280,0
263666215258578944,0
200263791097810944,0
236967653519020032,1
260610630111870977,0
264174769778356224,1
229825713790918656,1
216014765485600769,1
262666557375803393,1
258680818908663809,0
263877467079585792,1
263981029889544192,1
228292239833579520,0
254495575402242048,1
257269858943774722,0
242568952826458112,1
245269811851046912,0
259114248897191937,1
222445583955263489,1
225544711853719553,0
261644127148589057,0
260158752907468800,0
251195600849231872,0
222421757280268289,0
247496745951580160,0
242879445344595968,0
232927721934696448,0
262831491577417728,1
264234920732401664,0
260075722100572161,0
260904940417986560,0
250818111199129601,0
247737719256670208,1
230215450955485184,0
249410897930485760,0
177672944506503168,0
264070796710932480,0
258309760498139136,0
255894130750791680,0
264063884590186496,0
260839295273820160,0
254603060968562688,1
231206871007100928,1
257049363887575040,0
222391201561722881,1
210721852664979457,0
264096189119598592,1
259111912820850688,1
262245540073451520,0
258428070241906688,1
264078473495183362,1
257979041531965440,1
226900342833569792,1
170243777422827520,0
261528684614262784,0
252282596963282944,0
261635323929440256,0
263699714422231042,0
225757801992036352,0
259123883360276480,0
261460710238859267,1
233469495103066112,0
262899961887350785,1
258751674125012992,1
264033191302660096,0
196458880648232960,0
263341450496995328,1
261999908993769472,2
262875223584542720,0
263583169037615104,0
257481570225627137,1
261235246685630464,1
264177402958200832,0
259845920525533184,0
259524813465477121,1
263752563512467456,1
238481539061661697,0
200988311312019457,0
177363014943641600,0
261607256439803904,0
259796936180236288,1
169085941951119361,0
260824635602518016,2
261543440272220160,1
263950853831024640,1
249585709650944000,0
264146768718098432,0
264148123234992128,1
263078274178109440,0
264032201413386241,1
255715290921463808,1
253231859817918464,0
263334402799566848,0
192215364896169984,0
260268521597050882,1
262766304052789250,1
225869548480499712,0
211742226051633153,1
240727465683734529,0
243127986503688192,0
258824586647465985,1
262961286952910849,0
212703744314445824,0
250067097307205632,0
264138643977928704,1
258262903260602368,1
255588866180919296,0
263660078396235776,0
208281789867892737,2
262678081834217472,1
264127378056421376,0
209669128292810752,1
176609377678147586,0
259590644987748354,0
264193329976193024,0
250162789803491330,0
258545506043719681,1
264157078694813697,1
263359769321029632,1
263674581947138049,0
233637896685494272,0
262693961628524544,0
263947290786553856,0
254541560975339521,0
262538826768084994,1
251024359764934656,1
263663225076346883,1
258220788379963392,1
263017200225501184,1
261088634516668416,1
264038190183239680,1
263716710698344448,0
263196099857244161,1
260824444103192577,2
264084022341275648,1
254875786501292032,1
249716223372324866,0
264244232305385472,0
264248154826891264,1
263693129360752640,1
243639738345598976,0
264225920565530624,0
261941814397894656,0
263515005402636288,0
261495820497612801,1
260881214964117504,0
196380681486606337,0
261378086971531264,1
263676816802336769,1
243018503618191362,0
263124508657979392,0
256470303687979009,1
213406734587408384,1
244089484084391936,1
207633006981160960,1
262998531583918081,0
258479466869846016,0
264195044523798529,0
195614340957741057,0
238541137512648704,0
261894267574812672,0
259590648104091648,1
260787224658972672,1
234129695891943424,0
251696313350094849,1
202263648306073600,0
261566856635236352,0
216908604282900481,1
264111905726148608,1
255745510047109121,0
234069851159818240,2
237501095667200002,0
263351004559466496,1
263572913691705344,0
247002638858723329,1
260526862130876418,1
251853154151432192,0
263378073787965440,1
264224886799622144,0
251820777740066817,1
194896694859665408,0
264185414154350592,0
262576265180110848,0
262415400132816897,0
238571318495305728,1
254413778379214848,1
200985781161037824,1
263613337441538048,1
245250307448246272,0
260142958182031360,1
262981791726579714,1
263544116258942977,1
231297164641456128,1
259860948494450689,1
246723566656188419,2
263801945934942208,0
254715866594299904,1
261358207954472960,0
215439688117395456,0
251299874677592064,0
263090210252939264,1
263467540762722306,0
263663886358675456,0
254273844464996352,0
264209652953264128,1
257592792530956288,0
198134417053585408,1
235307035237957633,1
177715743314542592,1
263879491015819264,0
239923421562167297,1
257067928615272448,1
212344286803542016,0
262754280602218496,1
263848743361712128,1
231942533238902785,0
195534249833668609,1
218168052355833856,0
247139201496260608,0
251640387511410688,1
264110578367361024,1
262405747130900482,1
264204054941540353,1
264228787321978880,1
264075801333477376,0
262681698720956416,0
201075858998427648,0
258460568904687616,0
198537309795254272,1
263653866170621952,0
264176954725515264,0
247708001522315264,0
260095100598759424,0
264081187071459328,0
263411099607654402,0
251761000511074304,0
230845324120444928,0
246158677717966848,1
236161614338994176,0
256039501384777728,1
263034204768587776,1
172976938464444416,1
260968552914354176,0
213934925995458560,0
259181677333581824,1
202481567044612096,1
254040273603153920,1
233879091969925120,1
250423790453022720,1
218791399305383936,0
225162488767975424,1
247130305394262016,0
263415168623603712,0
213337904515256320,1
175464270300069888,1
232432584691441664,0
258285435313324032,0
258608462085365761,0
262950468110647296,1
211976626764910592,0
233771400488431617,0
245264757865734144,0
174049685298888704,1
253697096073482240,2
261356792687247360,1
257425974487040000,1
216851852959031296,2
262308915415494656,0
242723087618043904,0
223422387054592000,0
262746956533727232,1
260959438272335873,1
262054209212514304,1
201399348234432512,2
258184197213126656,0
169422963077169153,0
263317138914295809,1
264148626299842560,0
255478858147569664,0
216872516134772737,1
259456808672976896,1
264106125362860032,1
262926775091355648,1
262345829178826752,1
264132491571499008,1
258543556472471552,0
263208050872172544,0
263378774580682752,0
262987165380775936,1
264222962700398592,0
256108813176938496,0
263732811859640320,1
263067322418339840,0
239089527501778945,0
252411742532026368,2
255192038574788608,1
259108587614371840,1
259808133722013696,1
184064436263337985,0
264204167386628096,0
259369879591854081,0
263371414122409985,1
249737188911239168,0
258691668218376192,0
262740695268339712,1
262586462355197952,0
261838610402254850,0
260823931072704514,1
251071033375866880,0
258961278733778944,0
261783686893142016,1
263661413149593600,0
263945729268121600,0
256161686841618433,0
261079685386092544,1
263335702534684672,0
236402853642645504,0
257836106438029312,1
229549977087639552,0
250584660025962498,0
264107216108417026,0
178050158989283329,1
238256165413347329,1
196930183549288449,2
253339200852746241,2
254806671312957440,0
233183221796466688,1
263948148265861121,1
263496638193090560,1
262639435785580544,0
263572559663079424,0
225245362208776192,1
262084661818318848,0
254102606383812609,0
262048059494629376,1
237696140517191680,2
263316127684386816,1
250913556042764288,0
263750372550664193,1
262021931308568576,1
241618486961520640,0
202975390170484738,1
250922044810731521,0
264117466530213888,1
190247312830898177,0
219121356221054976,0
263869286441967617,0
251595640981835776,0
260166106138959872,0
262066106154512385,0
264133580995842050,1
262207703110254592,1
260489134207029248,1
262460934918909952,1
238795826045014017,1
262881665486036992,1
261552474664611840,1
262198058631192576,1
263447493382123520,0
262715356790005760,1
240457166937550849,2
246616461467066369,0
256498492523020288,1
240664907425669120,0
259978181312921600,0
206517930211540995,1
264200219976138753,0
264159593763065856,1
254271485479358466,0
262615096105238531,0
264185599785836545,0
214991541641551872,1
258584434595467264,0
159422332769796097,0
261190115785834497,0
226785569001324544,0
228691714079072256,0
259657583302959105,0
258945751550414849,1
262378616933990402,0
200402971245297665,1
263745731087712257,0
260522805072896000,1
259017923799154688,1
261386058648932352,1
196563231739875328,1
263647420854972416,0
264058607623102464,1
263975686723760128,1
219102989984612352,1
236261840664031233,1
263307878025285632,1
257986679086931968,0
260182877751373824,0
264068469971091457,0
262788496543076352,1
256702681794629632,0
261512027984494592,1
258063160941088768,0
261021810043256832,1
181181802910715904,0
252801449149480961,0
239634570142707713,2
262822721388433408,0
254421223084265472,0
264100039331307521,2
259733232537444352,0
240740332277485568,0
262971427320365056,0
251256906046373889,0
263134709255663617,1
263424496290123776,0
228977748029370368,0
264107182667214848,1
226497407280615424,1
259681855975084032,0
264160308115939328,0
263577807756607488,1
259471573843574784,0
246630936249257984,0
261719228929937408,1
264076525954015232,1
256073538698629122,0
241986301769945089,0
264201281286074368,1
262044920150384642,0
220916606224703489,1
220929000560795649,1
259021916000641025,1
254381801026486272,1
236674592721215488,2
264051214541541377,1
249379718518951936,0
264112961948356608,0
264101264168742912,1
249624948790947840,1
246497195958878208,1
236512733586157568,0
263388693371424768,0
260213785606893568,2
264196152738603008,1
255393818109689856,0
264048052149551105,1
264092498736062464,1
264094090822549504,0
261662956570431488,1
264189256090656768,2
259468978307624960,0
262945465883049984,0
225693476677894145,1
259525499087364096,0
264176351320371200,2
198472863181840384,0
252913776179953664,1
246975224501895168,1
263448631061905409,1
264225009038422017,0
254434713337487360,2
263659387636289537,1
216916166332002307,1
238910070786768896,1
250580070748549121,0
262160533292199937,1
263144580973752320,1
258099228100943872,1
263784602190098432,0
260153933853519872,0
253619299426631681,0
261939310050291712,0
263638603148689408,0
222256604551196674,1
254581000225554433,0
258281345111969792,0
262060176973111296,1
255605175593611264,2
263464244459229184,1
259537985530376192,1
263958288989839360,0
250595253927694336,0
264025901602308096,1
259670595120287746,0
264091839198556160,1
245071964761387008,1
263745047625887744,1
264242722272059392,1
264120700716068864,0
262932000875368448,1
262745802961743873,1
264248494041219072,0
263820158047494144,2
211805353116049408,2
233263919425273856,1
254863067337330688,1
263795384260915201,0
255484502212759552,0
264254733647228928,0
261436778915979264,0
210033327191760896,0
217603642243563522,1
227839945698603009,1
264215391474167808,1
238194041035046912,1
263311888446795777,0
262754743011647488,1
262982148234018816,1
264227638191738880,2
253046020974460928,2
259707681504366592,0
230685261128945664,0
210736515339390976,1
260792479220113408,0
258647935586283520,1
262897469162156032,0
252588691653001216,0
254307958098382848,0
181251333507133441,2
240486397792886785,0
253868450873753600,0
262269609892261888,0
263534992422998016,1
262473834110783488,1
255607702259105792,0
264113306468511744,0
249759361373712384,0
262416317510995969,1
263276190448623617,1
225048448758583296,0
191970813346463744,0
253421252956545024,0
262773960284966913,0
264220144178442240,0
194068505446989824,0
263417186876538880,1
240796853506027521,0
255939697552019456,1
233212813227720704,0
160323475427430400,1
256435590768234496,0
257781319134748672,1
262882428270546944,0
264148344484548609,0
264211712255873024,1
249401003013730305,1
263118027283910656,0
213884866457124864,1
263765132100898816,1
213675919628451843,1
260795785342496771,1
264189931285536768,1
262081842423939073,1
263308406314631169,0
264194927553024002,2
250995973067788288,1
178145657150898176,2
263745209463078912,1
180390457765924864,1
228834171915743233,1
247839867483066368,1
227191201625939968,0
255089337740431361,1
203036784345620480,1
250208046830206977,0
242922467218300928,2
262180625786740737,0
262621376144355329,0
213075265348321281,1
262637423517904896,1
262439671542460416,1
255136031253348352,0
258911898907598848,1
233988149242642432,0
230022389981917184,0
247794238828462080,0
177249771285774337,0
264074296152948736,0
247096223343972352,0
263649075184951297,1
262487722650918913,1
258690033119281155,0
264160811189170176,1
214819094908764161,1
263336324252176384,0
262620394232610816,0
254628999660187649,0
263385221318201344,0
264146823369859072,2
257626522964332545,0
264153399270965249,1
260812049083428864,0
250589021233881088,0
261868066290429952,0
262045724995371010,0
254235833643708417,0
261466575436120064,1
263278278339608576,1
264075826360885248,1
264104159387742208,0
263118212001067010,1
229505818360442880,1
251720416618504193,0
237531469474566145,0
258837684448006144,0
263440309680226307,1
167012303043174400,0
264041713746735104,0
259304984611545088,0
258521756149624832,0
254651687137058817,1
222886810932609024,0
173976647131856897,1
253827619215253504,0
263405035210280960,1
252630572541825024,2
259534867514138624,1
257898397007241217,0
225796291878334464,0
170243777498329088,1
244816587725606913,1
250210199653199874,0
254326279539662848,1
260814083211792384,0
247359998592696320,1
264100379355140096,1
264240778753220608,2
262395176998285313,1
236126012017086464,1
259879753987809281,0
247117134969307136,0
255473360258101248,1
160201550994743296,0
255866182266138624,0
253486223753089026,0
261982171504463872,2
264141454190997505,1
262058401893339136,0
247336279509975040,0
210682207117918208,0
254791849607315458,0
256404032510386176,0
255141165060456450,0
261159341107838976,0
221696071703871488,0
264067182730833920,0
261470450083844096,1
241197100442984449,0
264157731655667713,0
263437821602312192,0
263883944989163521,1
197500632326864896,1
264034923017555968,1
264134618377224192,1
258449523427393536,1
263497959264636928,0
263275582836576257,0
264218743935225857,0
263712888177434624,1
235041336800182274,1
259836035347922944,0
260250950332215296,0
262057250145828864,1
181155474727649281,0
263399310757085184,0
263197199893135360,0
264057815734312960,0
262759044597567488,1
240407969634848768,0
262428458729230336,1
262958425758126080,1
252075821693534208,1
252951898775236609,1
253019827713740800,0
244564769636503552,1
264027070584205312,1
233472689615015936,1
264160829803491330,0
222182045017841664,0
264239367357345793,0
257364609533632512,1
177677721940406272,0
200224918070247425,0
264008306157309952,1
262855203299147776,0
243278463400824832,0
264033740685189120,0
262083383524466689,0
193607786444226560,2
260794130702151680,0
262831845627002880,0
260223559807426560,1
250584600382955521,0
251001626670813185,1
264157782633242625,0
259969975442366464,1
250582267267805185,0
187628989211353089,0
259886571933818880,1
210696754033737728,0
264185885153710080,1
264216542668001281,0
244838924286042113,0
263019276678623232,1
264062581063438336,1
263761144802582528,0
253714398902886400,1
250658268542816256,0
262630754276753408,1
199569117320200192,0
195861647494090753,0
223298542939291649,0
264097904082444289,1
261819483050614784,0
247769320753606657,1
217052088771936256,1
253478126091399168,0
233120216731770880,0
259283350714474496,1
262222146045112322,0
245210392685596672,0
262651882542084096,1
261326280094523393,0
255075815795077121,0
257151071112282112,1
263786544404508672,1
227838159747182592,0
264197906049949697,0
260125496359149568,0
193982955822137346,0
257102598698569728,0
260890961096347649,1
259975530936401920,0
261012083963990016,1
232822565410836480,1
205361915583672321,0
263328169791193088,1
253094611009028097,0
258636322191843328,0
261010801194831873,0
259557310354030592,0
181145579731156992,0
217704646549057538,0
264221011828948992,0
166431918152351744,1
263263401139122176,1
263800298538168321,0
259338276891140098,1
264119940091629568,1
264203587687690240,1
264091996057137152,0
232086435581276162,0
228117878598144001,0
225470346449530880,2
231108943936626690,1
262934417922740225,1
258944195455250433,1
259784549607829505,2
250157286641762304,1
198810467706220544,1
264094595665760256,0
246243677209497600,1
223161874986958849,1
245289932921401344,1
241143586014511105,1
232800013053480961,1
214968814524309505,0
223079289648713729,0
264195782863884288,0
260788583533801472,0
258008526587310081,0
264191823109578752,1
253205217473085440,0
244736544735375360,0
246248842054488065,0
249739361191600128,1
233840249099407360,0
256305276205035521,0
252852149288042496,0
263340720608403456,0
264028166954299393,0
216310564090159104,0
225943424677855232,1
259620269570805761,1
262058157830963200,0
263938485105340416,0
219984962349305856,0
259266238411317248,0
262610491556372480,0
234008416606105600,0
264227730994888704,0
263711527062876161,0
248048144473006080,0
257190122871721984,0
256743781829853184,1
258645065860268032,0
256393842377515010,0
212612357157953536,0
264171732569563139,1
255896489891622913,0
263656651645652994,0
262741006166937600,1
248488552013377538,0
174456757672869889,0
254377766085091328,0
263887110942097408,0
255053822664257536,1
260082760222404608,0
264178704530427904,0
263642345302548481,0
262436461188616195,0
253241439587270656,0
264050098814722048,1
230248979013722112,1
262705593507254272,1
264174543134937089,0
160660491574837248,2
256076206263390208,0
233140683244986368,1
261968096015818753,1
255499947200356352,0
263293877962809344,0
259879957998739456,0
230521185333571584,1
264235264560488448,2
261150419965849600,0
181121996313214976,0
217406120480882689,0
262601175151550464,0
255843141528207360,1
262246323510718464,1
240456610059800576,1
259337768721854465,1
222219482393886720,1
199867220229242880,1
263602927925616640,0
259335490719858688,0
179057861853331456,0
263280602688659456,0
233213937347358720,0
227453976847732736,0
235740618507300865,1
264233010927382529,0
249955353020747776,0
255697530929688577,0
248468859059838976,1
257317008088117248,1
252106473709121538,1
260911907152740352,2
264042418565939201,0
180956629947265024,1
240467255933169664,0
258229289001041921,0
207893618638323715,0
259388539517689856,0
232110769381208065,1
196230018400141313,1
201047638022434816,0
252259109783621634,0
262319679983460352,0
263558512775413760,1
226670122654375936,0
262284824004415488,1
264042955537543168,0
257098826651955200,0
242065220938366977,0
230765694877319168,0
262936018557218816,0
263913239077851136,0
263828764260200448,0
263088629012914177,0
207550714833149952,1
251327730992427008,1
254705823014592515,0
257781560626003968,0
261979694243655680,0
221064957482119169,1
223725733267255296,1
257167540298584064,1
252483429051006976,0
252739722143735808,1
233785534768631808,0
251875291163676672,1
260123953912221699,0
256266266002722816,0
264095584531668992,1
233882735192719360,0
221664302690615297,1
238556479966285824,0
259133979112923136,0
261381770191200256,0
259255047727239168,1
245014014965460992,1
258419263596003328,0
227209351520194560,0
237592105546031104,1
194290488579338240,1
230101171686223872,0
263479898742595585,1
263622737715658753,1
228951496153235456,1
263655896217972736,1
263832308040208384,0
242564024083030016,0
244174063671595009,0
263757676327096321,1
263950006443208704,0
254191383466876928,1
221460663409709056,2
249163461551091712,0
233750526267912192,0
263547580372365312,1
261668710585102336,0
264017285990211584,0
221064776820862976,1
187754734453661696,0
181029617761656832,0
259451896287346688,1
233897419757199360,0
252457003073560578,1
264162139873357825,0
232560677502455808,0
261709334990426112,1
235422552917438467,0
189558431961714688,0
253121730460151808,0
263258537617149952,1
246181722209787905,0
258947169741053952,0
254147341681061888,1
263781654059970560,1
260235572562518017,0
182368866423422977,0
179784881558126593,1
254191562781769728,1
169871220244885504,0
228189105907978240,0
264039171293863936,0
234216865839341568,0
250365501765718016,0
248860468196806656,0
254383170303184896,0
179766446170189824,0
262775623804669952,0
242515416650481664,1
263142915960872960,1
263574243030204416,0
262319654192701440,0
260133588400492544,1
261308316142166016,1
179791502090842112,1
262647614439317505,0
257138019008659457,1
240905887370326016,0
225413265243648003,0
258236762382536705,0
229555912589860864,0
225004495812308993,0
260185411329064961,1
257371373167599616,1
210111336884076546,1
235045139293282304,1
260118043244498944,1
259463849252618240,1
263320855726145536,1
179807656469463040,1
257982743965757440,0
257314245790801921,1
227163087147507712,1
259028554082304001,0
230843754997764096,2
214269310053519360,1
262019049553272834,0
262351449411944449,1
245359432723218432,1
217021637730635777,0
259043747566874626,0
223525579910156288,0
257843861232160768,1
254467405709996033,0
260969190062710784,1
248490211565252608,1
243500671280762881,2
252018128165425152,0
264023207433076736,0
259676832645914624,0
259884258322165762,1
243777742527668224,1
191458429724921856,1
264072704188104704,0
194737370883563520,1
264215995718184960,0
261246970054705153,1
259304981155418114,1
258642213762920448,1
262243854395248640,1
226156085063589888,2
213801436025323520,1
232263315164901376,0
218555451053326336,0
255968505734762496,0
264153517382569985,0
195932298997276672,0
264227542951682048,1
260518395320090624,1
261065884452405248,0
168160079529525248,0
254852669091495936,1
257818565669969920,0
199091728362377216,0
225159355555790848,0
247581683610705921,1
264059736322891776,0
245578534809128960,0
194938068141219840,0
261616524731756546,1
263722741562228737,1
200912591403499520,0
262931792208736257,1
179802003172634624,1
239651233206525952,0
220737676867936256,0
264224343826001920,1
264222266592739328,0
260216542262865921,0
263470503635857408,1
260017783302152192,0
179665847445491714,0
239228217628704768,1
256575588263940096,0
178747898593427457,0
237519168088444928,0
255703860679671808,0
245016434613305344,0
222374601089490945,1
258751776906412034,1
217653090130735104,1
259491862602211328,1
252456877454139393,0
254272894690013184,0
263873743795912704,0
251699097298432000,0
169558701781430272,1
258434748232380416,1
261691840808505344,0
239443223070793728,0
257405987512786944,1
254049853036978177,1
257295277411672064,1
223827309961031680,1
202113766828163073,2
262029920862076928,0
227056771603251204,1
258594945894600705,1
242895612402606080,0
262284758329999362,0
252157755438297088,0
261285178972983297,1
238112606806765568,0
264136571937255424,1
258598640157880321,0
258807029001515008,0
257480638662316032,0
235752258401341440,1
259935578756354048,0
259669889818718209,0
195330360043765760,1
257351047436177408,1
197628734164045824,1
250842346827165696,0
228893727303794688,0
249796899769556992,0
250672227610148865,0
255821423917019136,0
263964706295930882,2
259011639100207104,2
242383226822340608,0
208894223477510144,0
259885267341676544,1
201125132389986304,1
208589679577149441,0
262463600759816192,0
262740905008693248,0
217086883996512257,2
257141139294003201,1
232838194427723776,0
258958654982737920,1
180828326015938560,0
258486023036739585,0
263451331208032256,1
261182036864290817,0
237455880663224322,1
263726600653266944,0
253298143603605505,1
263112608209575936,1
221730799815376898,0
244579933580562434,2
233769538565591040,1
207287180576571393,0
231873873673601024,0
264258491529719808,0
261958089236942848,0
257759518300196865,0
231118920671703042,1
208144535186964482,1
263995056556498945,2
248644562942316546,1
264234194606108673,0
235325780337516545,0
211091552485916672,0
250692833068085248,1
264218423544913921,0
249358718578348032,0
261610326481575936,1
237526931724189696,1
254675221431332866,1
230275486624919552,0
262007276259385345,1
261519116542820352,1
264211265285660672,2
252146784711872512,0
258636309625712640,0
162673227435479040,0
264236837890031617,0
254715041830551552,0
263749245234974720,0
251009146600710144,0
263433274725105664,1
263328541746270208,0
233216658989256704,0
223409508557389826,1
242474929440841729,1
206914455135731712,1
264133091398914049,1
233562856799485952,0
245069131429322752,0
252026038639554560,0
237018526681014274,0
264160912213147648,0
263473770868649984,0
263018181369659392,0
223459135205810177,0
262531392943050752,1
232700825250697217,0
226529137081344000,0
264093113964957698,1
197258374545543168,0
220241280326844417,0
263164050333130752,2
264067479721103360,1
261230922609852416,1
179043961955041280,0
264053286724857856,1
254353786955501569,0
255416647576322048,1
247016455227441152,0
237974463214387201,0
230664462380720130,0
262821392179949568,1
261439794150789122,2
247271912156299264,1
264223923607072768,1
248713507720269824,1
260209658491445248,1
230849786474012673,2
213330808109412354,0
264216059425472512,1
218284593642614784,0
256396109679845376,1
240741148279312386,0
209745101864435712,0
256869945034567681,0
252468870412107776,0
263614591123206144,1
250559711454306304,1
255682982453604352,2
263438296384946177,1
261992673957781504,0
264141412218568704,1
262515247607336961,0
248719726358970368,1
245614835453280256,0
205051127593574400,1
247781546889732096,1
262355106446581760,1
234140667608199170,1
262250376819007488,0
257193648813383680,1
210446360695160832,0
241633329022128129,0
262566170555731969,1
263444479015518208,2
258656325251244032,0
263877872232574976,0
264097799996571648,1
240777936007995393,1
263893667360686080,1
263146008966475777,1
263365034120474624,1
205240818112540672,2
194623117220524034,0
211291758041112577,0
221709046233841665,1
262083879505100800,0
263160486344925184,0
260570888821415936,0
263266052975247360,1
255367898221142016,0
263372218464100352,0
256661089301962752,0
212565561127874560,0
262595731234357249,1
263424181398536194,1
259709317723348993,0
262117912075177984,2
264241514304139265,1
260029569724211200,0
226313404011388929,0
263969983485333505,0
258783592497430528,0
255231857094963201,2
242762759434039296,0
260632109734039553,1
256793117653618690,0
206683711268339713,0
256487939951951872,0
261129154408378371,0
264060391875833856,0
261309493147746304,2
263486250516873216,0
208640436686954496,2
263666704343789569,0
179338327709851648,1
209361094433705986,1
259132269535559680,1
262033753625489408,0
263588235400339456,1
252481981357621249,0
254210874221400064,1
259789240529997824,1
190305457645158402,0
257823532409569280,0
263709740004163584,1
256815813758181377,0
211880238110613504,0
209473807294017537,1
231272482794004480,0
260885882750525440,1
264070658223394816,0
228998933182033920,1
262354031983329282,1
194921132615401472,1
257265462423994368,2
245789580975022080,0
211893882332512256,1
172503126190993409,2
263465637773471744,1
263419287698550784,0
195591857051414528,0
234531292711112704,1
263743715972116480,1
216306646199173120,0
230104475828879360,1
258307864542724096,0
255370239112519680,0
249559789753991170,2
263651073938558977,1
247900764335382528,1
178807017329266689,0
254960634716901379,0
240464672795533312,0
179835636814061568,1
223040928863100928,1
260001335745855488,0
257160288477003776,1
229668105528426497,1
225761959268720640,0
259158132494835712,0
246221270079913984,0
235825332287053826,1
250558167359049728,1
194531754521006080,1
264113909907222528,1
256290938509475840,1
246677067943518208,0
259598130465607680,1
250688600952422401,1
264135129553854466,1
263116039146065921,0
243439251230949376,0
263512387494219776,1
234313678541950976,0
195886044036599808,0
255072846215262210,0
264107068603113473,0
259406533060878337,1
210707552944652289,1
262775039731048450,0
260091570387292160,0
255602830679883777,2
261326810070007808,1
253914121437855744,2
252078222437654529,0
182260808552677377,1
241633723836145664,0
249418281360973824,1
264114631369441280,0
178367147955863552,1
175529298785075200,0
263722011489095680,0
252998087633674240,0
260113543381274624,0
242462765443325952,0
258392270791901184,0
260784832227987458,0
158551378271277058,0
264043122328223744,1
262767736541831168,1
220719148827807745,0
263271812643815424,0
261994867658461185,0
236786469145022464,1
256171769080197120,1
227577206833045504,0
254027657350627329,0
264014682241781760,0
263941849096544256,1
228088593472704512,1
258146446505820160,0
240750102354984960,0
237585672247062528,1
253532001238401025,0
254660160587444224,0
264078460903886848,0
256530125502443520,1
257591192684986368,0
249858762091925504,1
243464693556076544,0
227525239473586176,1
200430185508646913,1
254755890815700992,0
225824244469219328,1
264221908982185984,0
230438749425782784,0
259332563447988224,1
247734205994377216,2
218330840264998914,0
178228551483531267,2
255138095635263488,0
260509725194584064,1
263850185824808961,1
263506067957358592,2
224344926744358913,0
263398743557169152,1
257322582481711105,0
263478930852429824,0
264228409721364480,1
264078292661972993,0
264154590147133441,1
261643399042564096,1
245497829819297792,0
232337840443379712,0
242344501354561537,0
228681185226792963,0
226689944389828608,1
180978844734468096,0
260929297500499968,1
262594703852187648,1
239789158044925952,0
263035260449718273,0
263260788616204288,1
261172462685917184,0
263843935003242496,0
254005482933596160,0
264267144466952193,0
264089839723495426,1
253136346493882368,0
175064595055128577,1
263422927519760386,0
253544402021126144,1
263096322285006848,1
179130346141523968,0
259135546805321728,1
249311787340681216,1
255270962067558400,0
262610550863839232,1
252991148417757184,0
251692960553512960,0
263370062298218496,0
264189722094624768,1
205557859134603264,1
178776453427630080,0
259732801149079552,0
250118917111033856,0
258344582176202752,1
253639295754182656,0
241093487121035264,2
260172841025159168,0
262756922338463744,0
263422890702172162,0
264192473545449472,1
227054172770562050,0
264241872845807616,1
215646130996912130,0
198577752192978944,0
258973167215853569,0
235161112079917056,1
225343488806494208,1
208570438798942210,0
263563223117205504,0
223833463080493056,1
255114145375068162,0
235931228950372353,0
258421053548797952,1
261172352258293761,0
263997500644548610,1
261283635137757186,1
237960595608068096,1
260075616987127808,0
254574986403127297,0
194916840202452992,1
251703246811435008,1
262732183339429889,0
212889477687947265,0
254270043179851776,0
263762821047791616,0
256395936341843968,1
259432779136237570,1
258968711493455872,0
215146970791153664,0
256601844497907712,1
217044807615389696,0
252166642849697794,0
223597459228721153,0
245866691928678401,1
256395065021313024,1
261846418719899648,0
252946764913586176,0
263963100573753345,1
212238627655266304,1
239120879513137152,0
263955901621366784,1
263495083209412608,0
263302936711548929,0
179167439861452800,1
258960892874592257,1
264023493950205953,0
263245325916053504,1
205536200096878594,0
247456172611878912,1
264211117188997120,1
231503779520999424,0
250374070464561154,0
239687972264497152,0
253009360740036608,1
263341156774076416,0
255122786543104000,0
252061820913868800,0
261187380755709952,0
225792510272880640,0
259836438957420544,0
195256962114535425,2
240284597626212352,2
261916862286270465,0
264066347426783234,1
206023461942984704,1
179865542201589760,0
241180362359832577,1
263466896869961728,0
259137659031666688,0
264202159170678785,1
253650825312878593,0
256086536033038336,0
207902922732871680,1
263594959356194816,0
262513350515257344,1
251134716319760384,0
187826496067477506,1
200419730752942080,0
205786409162911745,0
241390505039106048,0
205337365919703040,0
260498827394568192,1
256801514063015936,0
227092535837872128,0
212221558020767744,1
174367489134837760,0
207139528790642689,0
257048341148471296,1
222941852117118976,1
250383700158717952,1
254795714629079040,0
263651258202718208,0
240456722743963648,1
263222914009137152,0
264150015008731136,1
255571451187449857,0
254991505532538880,1
221641616211984386,1
245555688011603970,0
251687657313284096,0
257495077822279680,1
263696758234836994,0
256780447588171776,0
220417415195000832,0
245719010132520960,2
240450477618241536,0
230485848196530177,2
254079508762722304,1
229661788139053056,0
259976463594438657,0
262562626251411456,0
261298341814616064,1
264197083127484418,1
258890516303847424,0
253355361875152896,1
258864855094816768,1
257273463838998528,0
263997723315953665,2
240603163969875970,2
258257156233637889,0
216057788940562432,1
256643935110299649,1
264158486601027584,0
263491751610822657,0
264113768181673984,2
175080776684146688,2
261133665415884801,1
226689818472628224,0
260561971915677696,1
256203529121849344,1
258419434794921984,1
258968226287984641,0
205169085959516160,0
206461485470322688,0
262410701782536192,0
261570781727830016,0
261474728458477569,0
264078638700453890,1
263955929043701760,1
262027039350087680,1
227724360281096192,0
261797127146045440,0
264260547850166273,1
247638834337165312,0
262779035522826240,1
263086410012164096,0
263627206788534272,0
264117081400815616,0
257145673034641408,1
258913337759371266,0
197141194252353537,1
221699346972950528,1
261925890940882944,0
261804813686296577,1
263273376477495296,0
245498207080169472,0
233154705755353088,1
243824441753227264,0
261399021292240896,0
263578125298987008,0
261125335293239297,0
263978108087066624,0
253318350518767616,0
255986174101950465,1
249352939091685376,1
263099080866156545,1
198212394386862081,0
248933386050215936,1
263395777404100609,0
261230593856118785,1
221631305480290304,1
256833613126045696,0
264006086842015744,0
254877714232774657,1
208892368559157248,0
251224246146187264,1
241202993930833920,1
242567915788959744,0
262222967126241280,1
258513552128749568,0
264211858238619648,0
211178267791736832,1
253612794468003840,1
260916486527401984,0
262962812660350977,0
261179231831207936,0
263875124753747968,1
216504024030126081,0
262272451340275712,0
260169704772083712,0
259651303964282880,1
251277240191569920,0
263431916538195968,2
262985294838636544,0
256999856487415810,0
247068524433002496,0
242997658963288064,0
256615292078284803,0
238077567599509506,1
231135683538976768,0
264111658237063168,0
215825403925889025,1
257658587327897600,1
257352432642846721,2
216813141823197186,0
205802461628334080,0
250380458846715905,0
263789656569683971,1
264210412881448960,0
256917310567239680,0
258611550464643072,1
263602106282414080,2
264220319554863104,0
253151259312394240,0
264140817789251584,0
262043995574784000,1
257011458116833281,1
254756727944278016,0
260598412427288578,2
250030711829053441,0
263320951679242240,2
262093093774434305,0
259790247011946497,0
264237429542760448,0
232997422123581441,0
264235457620103168,0
263814202030952448,0
262670809334693888,0
162895027431948289,1
205765642517872642,1
263445259026067456,0
262228914116648960,0
264226964452294658,0
262386992250236928,0
261186860469080065,0
263411629444714496,1
253822809522987008,0
239938198816563200,0
263238299907416064,0
261632945410949120,0
246481389929783296,0
263848091600449536,0
240116188225630208,1
198273277158883328,1
230475184715472896,2
259457772800847872,0
261244389207187457,1
195415397032407041,1
207884768862412800,0
252831827641913345,1
263731985728557056,0
263091044793597953,0
217120260665511937,0
256097672975495171,0
263172633108049920,0
264226168377602049,2
221915634009784321,1
259139578152251393,0
263660682128547841,0
210748996162035712,1
252206961377046530,0
263262279334764545,0
258775262190243840,0
250863677891284992,1
215774431329529857,1
241746135558017024,0
202077075572666371,1
262403804618715136,0
263250014619435008,0
264023585138540545,1
218928426894102528,2
250135531130851328,2
262034944249982977,1
263964488305373184,0
241200251707461634,1
247020791894515712,1
261184420126539777,0
263000967782490112,1
256916162733027328,0
262179234892640256,1
263770610461720576,1
263371904814022656,1
250485220036472832,0
208246258681393152,0
257181175087509504,0
263425234923819008,1
254689318109593600,1
261115825791049729,0
258139553972486145,0
261103497796268032,1
229923387307331584,0
241898137818632192,0
261852082070507522,1
261718259752120320,2
250920615190605825,1
233010424759603200,1
263874050709913601,0
262295085604016128,0
261682624077123586,1
261507633515753473,0
255493922309165057,1
263029015667933184,0
247437312399667200,0
259322810621648896,0
259363130658942976,0
262248053069737985,0
249162650829877248,0
263388136380432384,1
224840517530292226,1
262512093750771712,1
262100818604474368,0
210703250456973312,0
261508680682442752,0
236538984388513794,0
263367038658035712,0
257626148035493888,1
263140790174371840,0
264040073098575872,1
262029928038551552,1
264081752442691584,0
264109103482294272,0
238671312267132929,0
222574647181451264,1
194661048354222080,1
263932059184136192,2
211301597525970946,1
179021245587787777,1
250971764753051649,1
262559299769880576,0
263476628133408768,2
264058302416183297,0
247951136068366336,1
259802239017840641,2
229205632266407936,0
254147696837931008,0
244481871407370240,1
250482591092862977,1
258045843725238273,0
247641407072903168,0
250803769565126656,0
248141828598140929,1
234521427942989824,1
254694884722757634,0
258957671456182273,1
263649717521641472,0
212330127001010177,0
262785375305625600,1
263933631259623424,0
242171975718551552,0
231563276499173376,0
263029221440495616,1
258002655153102850,1
262700799338090496,0
252257623339040768,0
232254678535122944,0
264151093280395266,0
241717002929053696,0
252960631127408642,1
264141789856948224,1
263124267691036672,0
250458662118764544,1
223732716615639040,0
252365443694739457,0
239691474579623936,0
260499692239085568,1
191141857223385088,1
259982239327191042,1
242020874906124289,0
263665703066951680,0
247188496316497920,0
260588132968325121,0
208905325695336450,2
246875828359680000,0
241205049202724864,1
235514364692676609,1
241414682647343104,0
215065190297899008,0
230323522675810304,0
238583598389800960,0
262176939131944960,0
260191581771018242,0
222856770253619202,0
249937241579851776,0
187857532629430272,1
263628445219688448,0
263668919041142787,0
239490797102321664,0
261058830484504576,0
257131267882119168,1
261506620620677123,0
261190673640878080,1
264105215282798592,1
264044397937704960,1
253575437463207938,0
247113968613732352,1
257976553248550912,0
263992250013470720,0
252772646327025666,0
200677260951420928,0
260110606798032896,1
249105171831984128,0
254458124222738432,0
218398677159522304,1
261475995817750528,1
263503290313105408,0
199730333225189376,0
264184689235984384,1
179801851049410560,1
250290809952419840,1
263164280046747648,1
243568501934137345,1
170395010242584576,1
177566983741648896,1
262961110150430720,0
207867124142710784,0
261183928029835265,0
209614710553849858,0
245370485284696065,1
263129221768044545,1
259515952578846720,0
253772028434341888,1
179807719388229632,0
244943776613818369,0
264256616872955904,0
263740575453417472,1
230240776599261184,0
263109554794033153,0
238053848571314177,1
250553510767255552,1
264075037437489152,0
263970153765691393,0
263957336287232000,0
262002972354035713,0
260513292634710016,1
244161975771340800,1
254202472472657922,0
252158038557999105,0
254580043181858816,1
246736931965263872,0
256344087299497984,1
263290538306973697,1
184534477853294592,0
262210615446237186,0
243050857493573633,0
258980712319946752,0
258819156424683520,0
260966417917173760,1
241366253837615105,1
264150832495353857,0
261516888973144064,0
256640461249323008,1
231631383364263936,0
264141063592222721,1
213227560006463490,0
246189886078595072,0
200075552940498944,1
189963607449141249,0
245822505594523648,1
263950956763422721,0
214298562262077440,1
258501839958466560,0
251272579057328128,1
240281946410848258,0
263374115270979585,0
263544055038869504,1
253331546201800704,2
209289483173101568,0
227512546914103297,0
223978581699727362,1
217839810658840577,1
264005589074599936,1
264161033684402177,0
208216093968437248,0
214300610563022848,0
258533180271890432,1
259685519745769472,0
196143750974672896,0
263121831819628544,1
264227438467375104,0
263784061636579330,0
264194621616291840,2
264240248219914240,0
245798821949476864,0
263692553461846016,1
257690918205935616,0
250646470242492418,0
236913676190371840,1
261569461121843200,0
226480178698801152,0
244535525845893121,1
251475729940901888,0
262793727343484928,1
227324219019653120,2
180822965951279104,0
251895633642934273,1
263621146111524864,0
223966779171536896,0
179839092945715200,0
241896569887141888,0
262546221971959809,1
237950619430830080,1
259282963135619072,0
208386839227285504,1
262162781619486720,0
259269817465466881,1
226427662141386753,1
222363787473321984,1
263392598176194560,1
261535689445875712,0
247028851325149185,1
178035726770909184,0
190593980432515072,1
264056859458158592,1
252332523437305857,0
249292432561303552,1
258932266707865601,1
220218937814683651,0
258084583361376256,1
253217728859615232,1
195046388403421184,0
263367189313228800,0
263724498606489600,0
262843835191795713,1
261347870639284224,1
248485283144818689,0
246680926766116866,2
264232750658228224,1
261927847470456832,1
249261883411030016,0
258911295166889985,1
263411192867987458,1
260894525369769984,1
258952671233466369,0
249463124778946560,1
223903814229561345,0
246039375195037697,1
258609617200885760,1
252481809361817600,1
247508799240413184,1
197853863989088256,1
248288069378244608,0
264100879953711104,0
221602074088054784,0
177519407940124673,1
264209602533543936,1
263989402861187072,1
263883744199462913,0
221197276180258818,0
262157537162436609,1
263689404923645952,0
264079889966186496,0
211995853496393729,0
195646293895430145,1
259995931108335617,0
262418234647646208,2
245296388211097600,0
257356539415896065,2
227101942822866946,0
212420480429338624,0
194817289714012160,1
258195192945979393,1
262817026458939392,0
256338649422106624,0
264088907682025472,2
259396036915781633,0
211173489913245696,1
261665766087213056,0
226791256871821312,0
256447256201396224,1
233071672670945280,0
253266730653200384,0
256098432509440000,1
258807408766361601,0
261614129993883648,0
180492297077661698,0
254150540395679744,1
263078518341136384,1
260270340742213632,1
258269176748208128,0
264053467008602112,0
259819573489053696,0
254927948199645184,0
254772289864880128,0
179791600409526273,0
241223693974507520,0
178775448174600192,1
263265753925550081,1
229975946122387456,2
258262836927684609,1
264030807952334849,1
260796055795408896,1
264161393262080000,0
264185204875337729,1
214268298609704960,0
243386670781693952,1
240169740478345217,0
264165005807714304,0
222576805364768769,1
256314962274840576,0
257104141149679616,0
195571668654104576,0
259007713684635648,0
213045022067671040,1
260081107167477760,1
251171324863602688,1
262911394100432896,0
243592135088160768,0
263139075316400128,0
261173963957358592,1
259253042573099008,0
217814368371482626,0
248236225935327232,0
264133803260383232,1
261429133987438593,2
243084186154582016,0
263799954999492608,1
262273634456969216,0
254196072027664385,1
261950597924798464,0
192446069135777792,0
264097221790806017,1
262182899531526144,0
264097409020329984,0
227785415334174720,0
209443062601105411,1
263294837107871748,0
264163876155834368,0
261758932199014400,1
257774332019875840,1
263756354504757250,0
263532615712251904,0
231173730754236416,1
213037764801855488,0
227905550023806976,0
249905772325126144,1
256053490269421568,0
254634783601217538,0
179816700676550657,0
263660917529661441,0
259057488798822400,0
262288238004277248,0
233791454064033792,0
220824312880439296,1
210471808401555458,1
259366054000750592,1
264222820450578433,1
263433616003039232,1
261120747123126274,1
259429908428771328,1
262855261369278465,1
246652511166005249,1
232491088743628800,0
254332995467636737,0
218917319592783873,1
214953718561521664,0
259336422530637825,0
243975324575080448,0
254191248515149825,1
264162523278893056,0
250971042967875586,0
198497983409561602,0
261287847565328385,1
260205201494011904,1
242897681213698048,0
182407579836743680,0
223795961095397377,0
233451020078960640,2
263821953780047872,0
241763832752635904,1
232180800983019520,1
255671724174094336,1
263083503418241025,0
258653086686519296,1
232805770536833024,2
250144046020960257,1
195191635871662080,0
263555736087441409,1
224818466627129346,0
259982295023362048,0
229190621896785922,1
259422669689208832,0
248767230563721216,1
262970466661187584,0
249636896429457408,1
221928251138904064,1
249083073415753728,0
263503678017769472,0
246687724004835328,1
262966529606434817,2
233646741415661568,1
178271037396492288,1
263014452117516288,0
262387306621722624,0
179657043358130176,1
230531179613401088,0
264067357461327872,1
234329650170568704,1
234010710445809664,1
257729302639026176,0
211192566522187777,0
263063593082298369,0
262901948401995776,0
241178819183140864,1
258727026360467456,0
255957425155358720,2
262289262978949122,1
212193808883003393,1
213176189530025984,1
194466175286132737,0
259641255837970432,1
254375583125999616,0
258255868427112448,0
261810025629102080,2
260252684077129729,0
264257216004120576,2
262829151394877441,1
229642419346472960,0
261279474593714176,0
179469502935875584,2
251509910318247936,0
211339178720501761,1
233764484160815104,0
247549865633140736,1
246795289661407232,1
262623913744424963,0
202459775311675393,1
263513689448136705,0
245902635880820736,0
179817055959257088,1
259980235519426560,1
227540924903858176,0
207250417711714304,1
247221534006075392,0
262809189921980416,1
255491671045861376,0
262156938383613953,0
250403000177274880,0
193885096573550593,1
227022303781875712,0
213816770627239936,1
179144028426735616,0
237258792142766080,0
264235401902960640,1
253319324054474752,1
262661050493706240,2
220253797656694784,0
253018166643552256,0
257413945088937984,1
221211087805231104,1
262281252961398785,0
264143484951343104,1
263607818312118273,0
235673600504520704,0
263693338308390913,0
250193358620868608,0
263995095458643969,2
264074189433098241,0
251262286105300992,0
246123196330422273,0
251841586789490690,0
264227483640016897,1
260113366536835072,1
254060938943143936,1
213657428045217792,1
263707671654461441,0
253773227988512768,0
255199494252134400,0
232441941890043905,1
246749718204526593,0
211186027430285313,0
261392794726326272,0
231316861864787969,1
263375495993913344,0
258466469057269760,0
263764441605218306,0
254262329259212800,1
236627989293584384,0
194633105934528513,0
263463357003231232,0
264219157082542080,1
229801522073067520,0
259673329659699200,0
249375357956927488,1
262320321506451456,0
179761521306509312,0
262397089051451394,0
227440456374562817,1
263495251581341696,2
261095810681434113,0
254240807610093568,0
260260606567931905,1
259335221567160320,1
264204460585275393,1
242124106441584640,1
245617486333100033,0
262012714946273281,0
210514810511687680,2
231357783910522880,0
264142939503079424,1
263275304787787776,1
256723523505123329,0
254311078719283201,0
249484019257966592,1
264049522685140992,2
252758633044119553,0
243102834231496704,1
245620917210865664,1
210703265875247104,0
179590186261422080,1
179883340512505856,1
257948083533529088,0
259362985364045824,0
250685344159252480,0
218838038107783168,0
262068527043858432,1
179650790745587713,0
256342352623439872,0
260801248763207681,0
261654751610023936,1
225696828547534849,0
260489275982901248,1
254977571723296768,0
227296722861309952,1
254336380510035969,2
242299504710258688,1
250669527384330241,0
179327862346760192,0
255687931937824768,0
249898272888598528,1
217834577065017344,1
264151160762531840,1
258031934305861633,2
262925680663199744,1
251458217639563264,0
177325387649531904,0
244553592994938880,1
231881190511108096,0
263072074086641664,0
195489687182381056,0
262555851527712768,1
244926348798337024,1
261360355077398528,0
263955285507452928,0
264216096687656961,0
235456392331395072,1
232926562868133888,0
248387208917164032,0
176609365422387200,1
263968543425560577,1
264093295473479680,1
262053411980193792,0
248277033145225216,0
263322668114276353,1
253719256317952000,1
262419885328576512,1
256074478390505472,0
257894610402148352,0
194999334381686785,0
257365545119268866,0
264171049661382657,1
257070296715120641,1
263186262914134016,1
256708675895427072,1
263648724587261952,1
255339501998731264,1
264203401057951744,0
254687389799297024,0
263454410036875264,1
196143271599276032,0
259105159949451264,0
262198292010635264,0
242678669523427330,0
211964110735290368,1
215076589132709888,0
233525409336147968,1
255309153449414659,1
235031537878441986,1
233958643454865408,1
209960820539523072,0
251855105975005184,1
261626013740580864,1
262317041267138562,0
263172943876603904,0
229427795724484608,1
194562014352379904,1
226012236978745344,1
261782616448045057,0
247354734435000320,2
264095473068027905,0
248737554696896512,0
213597789890949120,1
262116587132301312,0
199982484258168832,0
248335181566595072,0
264007773921083392,0
258272202653302784,1
248907893846446080,1
232135579725340675,0
249581126895665152,0
195194783856205824,1
257131299230318592,0
263682908508782592,0
257294815895629824,0
261607355660242944,0
194692175366332417,0
263642704574042113,0
262030204791296000,0
227519165316071424,0
263817754912632833,0
260585033646084096,1
260840382085074944,0
262762576323170306,2
263944381592113152,0
262640479785590785,0
234452126334590976,1
253641810524647425,1
221194688454070272,0
263411318537715714,1
261767351840686080,1
180777731884204035,0
217295302296731648,1
231292243980460033,0
255416869434056706,0
264059372248915968,0
228427843456073728,1
221538850080698369,1
227789047488200704,0
262961764612861953,0
260504246091403266,0
263475704115634176,1
263438103048515585,2
223210507111383041,1
263592976704479232,0
217968740422266880,0
252253907512868864,0
250481942682808320,1
242725967695585281,0
261271905087131648,2
178100186453786625,1
215139232308666369,1
244635374306074624,0
214754321554874368,1
263779058284904448,1
250744453831213056,0
258679974591090688,1
230256158387081217,0
